{
	"style":	null,
	"props":	{
		"id":	"CMHSNMaster",
		"window_type":	12,
		"component_path":	"WCProgs/CMHSNMaster/",
		"component_uniquename":	"CMHSNMaster_CMHSNMaster"
	},
	"coordinates":	{
		"x":	0,
		"y":	0,
		"width":	378,
		"height":	378
	},
	"hint":	null,
	"controlType":	null,
	"children":	[
		{
			"style":	null,
			"props":	{
				"id":	"HeaderLbl",
				"text":	{
					"value":	"TitleBar",
					"has_exp":	true
				},
				"common_line_id":	"line4"
			},
			"coordinates":	{
				"x":	8,
				"y":	4,
				"width":	236,
				"height":	27
			},
			"hint":	null,
			"controlType":	"L",
			"children":	null
		},
		{
			"style":	null,
			"props":	{
				"id":	"SelectTypeLbl",
				"text":	"Select Type",
				"common_line_id":	"line41"
			},
			"coordinates":	{
				"x":	65,
				"y":	45,
				"width":	75,
				"height":	23
			},
			"hint":	null,
			"controlType":	"L",
			"children":	null
		},
		{
			"style":	null,
			"props":	{
				"id":	"HSN_SAC_Type_Combo",
				"items_list":	"Select,HSN,SAC",
				"attribute":	"U",
				"common_line_id":	"line41"
			},
			"coordinates":	{
				"x":	163,
				"y":	41,
				"width":	151,
				"height":	23
			},
			"hint":	null,
			"controlType":	"D",
			"children":	null
		},
		{
			"style":	null,
			"props":	{
				"id":	"HSN_SAC_NoLbl",
				"text":	"HSN/SAC No.",
				"common_line_id":	"line77"
			},
			"coordinates":	{
				"x":	65,
				"y":	77,
				"width":	76,
				"height":	23
			},
			"hint":	null,
			"controlType":	"L",
			"children":	null
		},
		{
			"style":	null,
			"props":	{
				"id":	"HSN_SAC_CodeEdit",
				"mgformat":	"mgFormat",
				"attribute":	"U",
				"common_line_id":	"line77"
			},
			"coordinates":	{
				"x":	163,
				"y":	77,
				"width":	151,
				"height":	23
			},
			"hint":	null,
			"controlType":	"T",
			"children":	null
		},
		{
			"style":	null,
			"props":	{
				"id":	"CGSTLbl",
				"text":	"CGST",
				"common_line_id":	"line107"
			},
			"coordinates":	{
				"x":	65,
				"y":	107,
				"width":	75,
				"height":	23
			},
			"hint":	null,
			"controlType":	"L",
			"children":	null
		},
		{
			"style":	null,
			"props":	{
				"id":	"PCGSTIdCombo",
				"items_list":	"0",
				"attribute":	"N",
				"common_line_id":	"line107"
			},
			"coordinates":	{
				"x":	163,
				"y":	107,
				"width":	151,
				"height":	23
			},
			"hint":	null,
			"controlType":	"D",
			"children":	null
		},
		{
			"style":	null,
			"props":	{
				"id":	"SGSTLbl",
				"text":	"SGST",
				"common_line_id":	"line138"
			},
			"coordinates":	{
				"x":	65,
				"y":	138,
				"width":	75,
				"height":	23
			},
			"hint":	null,
			"controlType":	"L",
			"children":	null
		},
		{
			"style":	null,
			"props":	{
				"id":	"PSGSTIdCombo",
				"items_list":	"0",
				"attribute":	"N",
				"common_line_id":	"line138"
			},
			"coordinates":	{
				"x":	163,
				"y":	138,
				"width":	151,
				"height":	23
			},
			"hint":	null,
			"controlType":	"D",
			"children":	null
		},
		{
			"style":	null,
			"props":	{
				"id":	"IGSTLbl",
				"text":	"IGST",
				"common_line_id":	"line169"
			},
			"coordinates":	{
				"x":	65,
				"y":	169,
				"width":	76,
				"height":	23
			},
			"hint":	null,
			"controlType":	"L",
			"children":	null
		},
		{
			"style":	null,
			"props":	{
				"id":	"PIGSTIdCombo",
				"items_list":	"0",
				"attribute":	"N",
				"common_line_id":	"line169"
			},
			"coordinates":	{
				"x":	163,
				"y":	169,
				"width":	151,
				"height":	23
			},
			"hint":	null,
			"controlType":	"D",
			"children":	null
		},
		{
			"style":	null,
			"props":	{
				"id":	"CESSLbl",
				"text":	"CESS",
				"common_line_id":	"line199"
			},
			"coordinates":	{
				"x":	65,
				"y":	199,
				"width":	76,
				"height":	23
			},
			"hint":	null,
			"controlType":	"L",
			"children":	null
		},
		{
			"style":	null,
			"props":	{
				"id":	"CESSIdCombo",
				"items_list":	"0",
				"attribute":	"N",
				"common_line_id":	"line199"
			},
			"coordinates":	{
				"x":	163,
				"y":	199,
				"width":	151,
				"height":	23
			},
			"hint":	null,
			"controlType":	"D",
			"children":	null
		},
		{
			"style":	null,
			"props":	{
				"id":	"HSN_SAC_DescriptionLbl",
				"text":	"HSN/SAC Description",
				"common_line_id":	"line230"
			},
			"coordinates":	{
				"x":	65,
				"y":	230,
				"width":	76,
				"height":	32
			},
			"hint":	null,
			"controlType":	"L",
			"children":	null
		},
		{
			"style":	null,
			"props":	{
				"id":	"HSNDisciptionTextArea",
				"mgformat":	"mgFormat",
				"attribute":	"U",
				"common_line_id":	"line230"
			},
			"coordinates":	{
				"x":	163,
				"y":	230,
				"width":	151,
				"height":	60
			},
			"hint":	null,
			"controlType":	"T",
			"children":	null
		},
		{
			"style":	null,
			"props":	{
				"id":	"ActiveLbl",
				"enabled":	{
					"value":	null,
					"has_exp":	true
				},
				"text":	"Active",
				"common_line_id":	"line298"
			},
			"coordinates":	{
				"x":	65,
				"y":	298,
				"width":	76,
				"height":	23
			},
			"hint":	null,
			"controlType":	"L",
			"children":	null
		},
		{
			"style":	null,
			"props":	{
				"id":	"ActiveCheckBox",
				"enabled":	{
					"value":	null,
					"has_exp":	true
				},
				"text":	"",
				"attribute":	"B",
				"common_line_id":	"line298"
			},
			"coordinates":	{
				"x":	163,
				"y":	298,
				"width":	48,
				"height":	23
			},
			"hint":	null,
			"controlType":	"C",
			"children":	null
		},
		{
			"style":	null,
			"props":	{
				"id":	"BtnSave",
				"visible":	{
					"value":	null,
					"has_exp":	true
				},
				"tooltip":	{
					"value":	null,
					"has_exp":	true
				},
				"format":	"\u0026Save",
				"attribute":	"U",
				"common_line_id":	"line341"
			},
			"coordinates":	{
				"x":	169,
				"y":	341,
				"width":	90,
				"height":	30
			},
			"hint":	null,
			"controlType":	"B",
			"children":	null
		},
		{
			"style":	null,
			"props":	{
				"id":	"BtnCancel",
				"format":	"\u0026Cancel",
				"attribute":	"U",
				"common_line_id":	"line341"
			},
			"coordinates":	{
				"x":	267,
				"y":	341,
				"width":	90,
				"height":	30
			},
			"hint":	null,
			"controlType":	"B",
			"children":	null
		}
	]
}