[
	{
		"module_name":	"",
		"routesArray":	[
			{
				"RouteName":	"Login",
				"ModuleName":	"",
				"OutletName":	"",
				"children":	null
			},
			{
				"RouteName":	"HomePage",
				"ModuleName":	"",
				"OutletName":	"",
				"children":	[
					{
						"RouteName":	"CompanyMast",
						"ModuleName":	"",
						"OutletName":	"",
						"children":	null
					},
					{
						"RouteName":	"PurchaseList",
						"ModuleName":	"",
						"OutletName":	"",
						"children":	null
					},
					{
						"RouteName":	"CustSuppList",
						"ModuleName":	"",
						"OutletName":	"",
						"children":	null
					},
					{
						"RouteName":	"ItemMasterList",
						"ModuleName":	"",
						"OutletName":	"",
						"children":	null
					},
					{
						"RouteName":	"TaxMasterList",
						"ModuleName":	"",
						"OutletName":	"",
						"children":	null
					},
					{
						"RouteName":	"CountryList",
						"ModuleName":	"",
						"OutletName":	"",
						"children":	null
					},
					{
						"RouteName":	"StateList",
						"ModuleName":	"",
						"OutletName":	"",
						"children":	null
					},
					{
						"RouteName":	"CityList",
						"ModuleName":	"",
						"OutletName":	"",
						"children":	null
					},
					{
						"RouteName":	"ViewUnitMaster",
						"ModuleName":	"",
						"OutletName":	"",
						"children":	null
					},
					{
						"RouteName":	"BranchList",
						"ModuleName":	"",
						"OutletName":	"",
						"children":	null
					},
					{
						"RouteName":	"FinancialYearList",
						"ModuleName":	"",
						"OutletName":	"",
						"children":	null
					},
					{
						"RouteName":	"HSNMasterList",
						"ModuleName":	"",
						"OutletName":	"",
						"children":	null
					},
					{
						"RouteName":	"SalesList",
						"ModuleName":	"",
						"OutletName":	"",
						"children":	null
					}
				]
			},
			{
				"RouteName":	"UserCompanyList",
				"ModuleName":	"",
				"OutletName":	"",
				"children":	null
			}
		]
	}
]