{
	"style":	null,
	"props":	{
		"id":	"CMFinancialYear",
		"window_type":	12,
		"component_path":	"WCProgs/CMFinancialYear/",
		"component_uniquename":	"CMFinancialYear_CMFinancialYear"
	},
	"coordinates":	{
		"x":	0,
		"y":	0,
		"width":	378,
		"height":	378
	},
	"hint":	null,
	"controlType":	null,
	"children":	[
		{
			"style":	null,
			"props":	{
				"id":	"HeaderLbl",
				"text":	{
					"value":	null,
					"has_exp":	true
				},
				"common_line_id":	"line5"
			},
			"coordinates":	{
				"x":	8,
				"y":	5,
				"width":	198,
				"height":	27
			},
			"hint":	null,
			"controlType":	"L",
			"children":	null
		},
		{
			"style":	null,
			"props":	{
				"id":	"BranchLbl",
				"text":	"Branch",
				"common_line_id":	"line77"
			},
			"coordinates":	{
				"x":	57,
				"y":	77,
				"width":	76,
				"height":	23
			},
			"hint":	null,
			"controlType":	"L",
			"children":	null
		},
		{
			"style":	null,
			"props":	{
				"id":	"BranchNameEdit",
				"modifiable":	false,
				"mgformat":	"mgFormat",
				"attribute":	"U",
				"common_line_id":	"line77"
			},
			"coordinates":	{
				"x":	163,
				"y":	81,
				"width":	151,
				"height":	23
			},
			"hint":	null,
			"controlType":	"T",
			"children":	null
		},
		{
			"style":	null,
			"props":	{
				"id":	"FinYearLbl",
				"text":	"Fin. Year",
				"common_line_id":	"line115"
			},
			"coordinates":	{
				"x":	57,
				"y":	115,
				"width":	76,
				"height":	23
			},
			"hint":	null,
			"controlType":	"L",
			"children":	null
		},
		{
			"style":	null,
			"props":	{
				"id":	"FyyearEdit",
				"mgformat":	"mgFormat",
				"attribute":	"U",
				"common_line_id":	"line115"
			},
			"coordinates":	{
				"x":	163,
				"y":	118,
				"width":	151,
				"height":	23
			},
			"hint":	null,
			"controlType":	"T",
			"children":	null
		},
		{
			"style":	null,
			"props":	{
				"id":	"StartDateLbl",
				"text":	"Start Date",
				"common_line_id":	"line150"
			},
			"coordinates":	{
				"x":	57,
				"y":	150,
				"width":	76,
				"height":	23
			},
			"hint":	null,
			"controlType":	"L",
			"children":	null
		},
		{
			"style":	null,
			"props":	{
				"id":	"StartDateEdit",
				"mgformat":	"mgFormat",
				"attribute":	"D",
				"common_line_id":	"line150"
			},
			"coordinates":	{
				"x":	163,
				"y":	155,
				"width":	151,
				"height":	23
			},
			"hint":	null,
			"controlType":	"T",
			"children":	null
		},
		{
			"style":	null,
			"props":	{
				"id":	"EndDateLbl",
				"text":	"End Date",
				"common_line_id":	"line186"
			},
			"coordinates":	{
				"x":	57,
				"y":	186,
				"width":	76,
				"height":	23
			},
			"hint":	null,
			"controlType":	"L",
			"children":	null
		},
		{
			"style":	null,
			"props":	{
				"id":	"EndDateEdit",
				"mgformat":	"mgFormat",
				"attribute":	"D",
				"common_line_id":	"line186"
			},
			"coordinates":	{
				"x":	163,
				"y":	186,
				"width":	151,
				"height":	23
			},
			"hint":	null,
			"controlType":	"T",
			"children":	null
		},
		{
			"style":	null,
			"props":	{
				"id":	"DefaultYearLbl",
				"text":	"Default Year",
				"common_line_id":	"line223"
			},
			"coordinates":	{
				"x":	57,
				"y":	223,
				"width":	76,
				"height":	23
			},
			"hint":	null,
			"controlType":	"L",
			"children":	null
		},
		{
			"style":	null,
			"props":	{
				"id":	"DefaultYearCheckBox",
				"text":	"",
				"attribute":	"B",
				"common_line_id":	"line223"
			},
			"coordinates":	{
				"x":	169,
				"y":	223,
				"width":	48,
				"height":	23
			},
			"hint":	null,
			"controlType":	"C",
			"children":	null
		},
		{
			"style":	null,
			"props":	{
				"id":	"BtnSave",
				"visible":	{
					"value":	null,
					"has_exp":	true
				},
				"tooltip":	{
					"value":	null,
					"has_exp":	true
				},
				"format":	"\u0026Save",
				"attribute":	"U",
				"common_line_id":	"line337"
			},
			"coordinates":	{
				"x":	169,
				"y":	337,
				"width":	90,
				"height":	30
			},
			"hint":	null,
			"controlType":	"B",
			"children":	null
		},
		{
			"style":	null,
			"props":	{
				"id":	"BtnCancel",
				"format":	"\u0026Cancel",
				"attribute":	"U",
				"common_line_id":	"line337"
			},
			"coordinates":	{
				"x":	267,
				"y":	337,
				"width":	90,
				"height":	30
			},
			"hint":	null,
			"controlType":	"B",
			"children":	null
		}
	]
}