{
	"style":	null,
	"props":	{
		"id":	"Detail",
		"component_path":	"WCTran/PurchaseList/Detail/",
		"component_uniquename":	"PurchaseList_Detail_Detail"
	},
	"coordinates":	{
		"x":	0,
		"y":	0,
		"width":	816,
		"height":	325
	},
	"hint":	null,
	"controlType":	null,
	"children":	[
		{
			"style":	null,
			"props":	{
				"id":	"New",
				"format":	"\u0026New",
				"attribute":	"U",
				"common_line_id":	"line4"
			},
			"coordinates":	{
				"x":	4,
				"y":	4,
				"width":	60,
				"height":	30
			},
			"hint":	null,
			"controlType":	"B",
			"children":	null
		},
		{
			"style":	{
				"line_divider":	true
			},
			"props":	{
				"id":	"Table1",
				"table_row_height":	68,
				"table_title_height":	26,
				"common_line_id":	"line40"
			},
			"coordinates":	{
				"x":	0,
				"y":	40,
				"width":	812,
				"height":	281
			},
			"hint":	null,
			"controlType":	"A",
			"children":	[
				{
					"style":	null,
					"props":	{
						"id":	"Column5",
						"column_title":	"Purchase Code",
						"sortable":	true,
						"is_table_child":	true,
						"web_style":	2
					},
					"coordinates":	{
						"width":	79
					},
					"hint":	null,
					"controlType":	"K",
					"children":	[
						{
							"style":	null,
							"props":	{
								"id":	"PurchaseCode",
								"modifiable":	false,
								"mgformat":	"mgFormat",
								"attribute":	"U",
								"is_table_child":	true,
								"web_style":	2,
								"common_line_id":	"line70"
							},
							"coordinates":	{
								"x":	3,
								"y":	70,
								"width":	75,
								"height":	23
							},
							"hint":	null,
							"controlType":	"T",
							"children":	null
						}
					]
				},
				{
					"style":	null,
					"props":	{
						"id":	"Column6",
						"column_title":	"Supplier Name",
						"sortable":	true,
						"is_table_child":	true,
						"web_style":	2
					},
					"coordinates":	{
						"width":	80
					},
					"hint":	null,
					"controlType":	"K",
					"children":	[
						{
							"style":	null,
							"props":	{
								"id":	"CustName",
								"modifiable":	false,
								"mgformat":	"mgFormat",
								"attribute":	"U",
								"is_table_child":	true,
								"web_style":	2,
								"common_line_id":	"line70"
							},
							"coordinates":	{
								"x":	82,
								"y":	70,
								"width":	72,
								"height":	23
							},
							"hint":	null,
							"controlType":	"T",
							"children":	null
						}
					]
				},
				{
					"style":	null,
					"props":	{
						"id":	"Column7",
						"column_title":	"Reference No.",
						"sortable":	true,
						"is_table_child":	true,
						"web_style":	2
					},
					"coordinates":	{
						"width":	73
					},
					"hint":	null,
					"controlType":	"K",
					"children":	[
						{
							"style":	null,
							"props":	{
								"id":	"RefNo",
								"modifiable":	false,
								"mgformat":	"mgFormat",
								"attribute":	"U",
								"is_table_child":	true,
								"web_style":	2,
								"common_line_id":	"line70"
							},
							"coordinates":	{
								"x":	165,
								"y":	70,
								"width":	65,
								"height":	23
							},
							"hint":	null,
							"controlType":	"T",
							"children":	null
						}
					]
				},
				{
					"style":	null,
					"props":	{
						"id":	"Column8",
						"column_title":	"Challan No. | Date",
						"sortable":	true,
						"is_table_child":	true,
						"web_style":	2
					},
					"coordinates":	{
						"width":	101
					},
					"hint":	null,
					"controlType":	"K",
					"children":	[
						{
							"style":	null,
							"props":	{
								"id":	"ChallanNoDate",
								"modifiable":	false,
								"mgformat":	"mgFormat",
								"attribute":	"U",
								"is_table_child":	true,
								"web_style":	2,
								"common_line_id":	"line70"
							},
							"coordinates":	{
								"x":	235,
								"y":	70,
								"width":	94,
								"height":	23
							},
							"hint":	null,
							"controlType":	"T",
							"children":	null
						}
					]
				},
				{
					"style":	null,
					"props":	{
						"id":	"Column9",
						"column_title":	"Invoice No. | Date",
						"sortable":	true,
						"is_table_child":	true,
						"web_style":	2
					},
					"coordinates":	{
						"width":	98
					},
					"hint":	null,
					"controlType":	"K",
					"children":	[
						{
							"style":	null,
							"props":	{
								"id":	"InvoiceNoDate",
								"modifiable":	false,
								"mgformat":	"mgFormat",
								"attribute":	"U",
								"is_table_child":	true,
								"web_style":	2,
								"common_line_id":	"line70"
							},
							"coordinates":	{
								"x":	336,
								"y":	70,
								"width":	93,
								"height":	23
							},
							"hint":	null,
							"controlType":	"T",
							"children":	null
						}
					]
				},
				{
					"style":	null,
					"props":	{
						"id":	"Column10",
						"column_title":	"Basic",
						"sortable":	true,
						"is_table_child":	true,
						"web_style":	2
					},
					"coordinates":	{
						"width":	66
					},
					"hint":	null,
					"controlType":	"K",
					"children":	[
						{
							"style":	null,
							"props":	{
								"id":	"Basic",
								"modifiable":	false,
								"mgformat":	"mgFormat",
								"attribute":	"N",
								"is_table_child":	true,
								"web_style":	2,
								"common_line_id":	"line70"
							},
							"coordinates":	{
								"x":	435,
								"y":	70,
								"width":	63,
								"height":	23
							},
							"hint":	null,
							"controlType":	"T",
							"children":	null
						}
					]
				},
				{
					"style":	null,
					"props":	{
						"id":	"Column11",
						"column_title":	"Tax",
						"sortable":	true,
						"is_table_child":	true,
						"web_style":	2
					},
					"coordinates":	{
						"width":	60
					},
					"hint":	null,
					"controlType":	"K",
					"children":	[
						{
							"style":	null,
							"props":	{
								"id":	"Tax",
								"modifiable":	false,
								"mgformat":	"mgFormat",
								"attribute":	"N",
								"is_table_child":	true,
								"web_style":	2,
								"common_line_id":	"line70"
							},
							"coordinates":	{
								"x":	501,
								"y":	70,
								"width":	57,
								"height":	23
							},
							"hint":	null,
							"controlType":	"T",
							"children":	null
						}
					]
				},
				{
					"style":	null,
					"props":	{
						"id":	"Column12",
						"column_title":	"Total",
						"sortable":	true,
						"is_table_child":	true,
						"web_style":	2
					},
					"coordinates":	{
						"width":	64
					},
					"hint":	null,
					"controlType":	"K",
					"children":	[
						{
							"style":	null,
							"props":	{
								"id":	"Total",
								"modifiable":	false,
								"mgformat":	"mgFormat",
								"attribute":	"N",
								"is_table_child":	true,
								"web_style":	2,
								"common_line_id":	"line70"
							},
							"coordinates":	{
								"x":	561,
								"y":	70,
								"width":	61,
								"height":	23
							},
							"hint":	null,
							"controlType":	"T",
							"children":	null
						}
					]
				},
				{
					"style":	null,
					"props":	{
						"id":	"Column13",
						"column_title":	"Status",
						"sortable":	false,
						"is_table_child":	true,
						"web_style":	2
					},
					"coordinates":	{
						"width":	43
					},
					"hint":	null,
					"controlType":	"K",
					"children":	[
						{
							"style":	null,
							"props":	{
								"id":	"Active",
								"visible":	{
									"value":	null,
									"has_exp":	true
								},
								"text":	"",
								"attribute":	"B",
								"is_table_child":	true,
								"web_style":	2,
								"common_line_id":	"line70"
							},
							"coordinates":	{
								"x":	636,
								"y":	70,
								"width":	20,
								"height":	15
							},
							"hint":	null,
							"controlType":	"C",
							"children":	null
						}
					]
				},
				{
					"style":	null,
					"props":	{
						"id":	"Column14",
						"column_title":	"Created By | Date",
						"sortable":	true,
						"is_table_child":	true,
						"web_style":	2
					},
					"coordinates":	{
						"width":	89
					},
					"hint":	null,
					"controlType":	"K",
					"children":	[
						{
							"style":	null,
							"props":	{
								"id":	"FullName",
								"visible":	{
									"value":	null,
									"has_exp":	true
								},
								"modifiable":	false,
								"mgformat":	"mgFormat",
								"attribute":	"A",
								"is_table_child":	true,
								"web_style":	2,
								"common_line_id":	"line70"
							},
							"coordinates":	{
								"x":	670,
								"y":	70,
								"width":	79,
								"height":	23
							},
							"hint":	null,
							"controlType":	"T",
							"children":	null
						}
					]
				},
				{
					"style":	null,
					"props":	{
						"id":	"Column1048605",
						"column_title":	"Action",
						"is_table_child":	true,
						"web_style":	2
					},
					"coordinates":	{
						"width":	52
					},
					"hint":	null,
					"controlType":	"K",
					"children":	[
						{
							"style":	null,
							"props":	{
								"id":	"Edit",
								"format":	"\u0026Edit",
								"attribute":	"U",
								"is_table_child":	true,
								"web_style":	2,
								"row_editing_type":	0,
								"common_line_id":	"line67"
							},
							"coordinates":	{
								"x":	759,
								"y":	67,
								"width":	46,
								"height":	30
							},
							"hint":	null,
							"controlType":	"B",
							"children":	null
						},
						{
							"style":	null,
							"props":	{
								"id":	"View_Detail",
								"tooltip":	{
									"value":	null,
									"has_exp":	true
								},
								"format":	"\u0026View",
								"attribute":	"U",
								"is_table_child":	true,
								"web_style":	2,
								"row_editing_type":	0,
								"common_line_id":	"line99"
							},
							"coordinates":	{
								"x":	759,
								"y":	99,
								"width":	46,
								"height":	30
							},
							"hint":	null,
							"controlType":	"B",
							"children":	null
						}
					]
				}
			]
		}
	]
}