{
	"style":	null,
	"props":	{
		"id":	"CompanyList",
		"component_path":	"WCProgs/UserCompanyRelation/CompanyList/",
		"component_uniquename":	"UserCompanyRelation_CompanyList_CompanyList"
	},
	"coordinates":	{
		"x":	0,
		"y":	0,
		"width":	598,
		"height":	414
	},
	"hint":	null,
	"controlType":	null,
	"children":	[
		{
			"style":	{
				"line_divider":	true
			},
			"props":	{
				"id":	"Table3",
				"visible":	{
					"value":	null,
					"has_exp":	true
				},
				"table_row_height":	30,
				"table_title_height":	33,
				"no_modifiable_descendants":	true,
				"common_line_id":	"line0"
			},
			"coordinates":	{
				"x":	0,
				"y":	0,
				"width":	598,
				"height":	363
			},
			"hint":	null,
			"controlType":	"A",
			"children":	[
				{
					"style":	null,
					"props":	{
						"id":	"Column4",
						"column_title":	"Company Branch Name",
						"sortable":	false,
						"is_table_child":	true,
						"web_style":	2
					},
					"coordinates":	{
						"width":	291
					},
					"hint":	null,
					"controlType":	"K",
					"children":	[
						{
							"style":	null,
							"props":	{
								"id":	"BranchName",
								"visible":	{
									"value":	null,
									"has_exp":	true
								},
								"modifiable":	false,
								"mgformat":	"mgFormat",
								"attribute":	"U",
								"is_table_child":	true,
								"web_style":	2,
								"common_line_id":	"line40"
							},
							"coordinates":	{
								"x":	10,
								"y":	40,
								"width":	276,
								"height":	19
							},
							"hint":	null,
							"controlType":	"T",
							"children":	null
						}
					]
				},
				{
					"style":	null,
					"props":	{
						"id":	"Column5",
						"column_title":	"Branch Location",
						"sortable":	true,
						"is_table_child":	true,
						"web_style":	2
					},
					"coordinates":	{
						"width":	176
					},
					"hint":	null,
					"controlType":	"K",
					"children":	[
						{
							"style":	null,
							"props":	{
								"id":	"BranchLocation",
								"visible":	{
									"value":	null,
									"has_exp":	true
								},
								"modifiable":	false,
								"mgformat":	"mgFormat",
								"attribute":	"U",
								"is_table_child":	true,
								"web_style":	2,
								"common_line_id":	"line40"
							},
							"coordinates":	{
								"x":	294,
								"y":	40,
								"width":	154,
								"height":	19
							},
							"hint":	null,
							"controlType":	"T",
							"children":	null
						}
					]
				},
				{
					"style":	null,
					"props":	{
						"id":	"Column6",
						"column_title":	"User Type",
						"sortable":	false,
						"is_table_child":	true,
						"web_style":	2
					},
					"coordinates":	{
						"width":	110
					},
					"hint":	null,
					"controlType":	"K",
					"children":	[
						{
							"style":	null,
							"props":	{
								"id":	"Status",
								"visible":	{
									"value":	null,
									"has_exp":	true
								},
								"modifiable":	false,
								"dataexp":	true,
								"is_table_child":	true,
								"web_style":	2,
								"common_line_id":	"line40"
							},
							"coordinates":	{
								"x":	470,
								"y":	40,
								"width":	76,
								"height":	19
							},
							"hint":	null,
							"controlType":	"T",
							"children":	null
						}
					]
				}
			]
		},
		{
			"style":	null,
			"props":	{
				"id":	"Label1",
				"text":	"You are not associated with any Company!",
				"common_line_id":	"line0"
			},
			"coordinates":	{
				"x":	114,
				"y":	129,
				"width":	327,
				"height":	33
			},
			"hint":	null,
			"controlType":	"L",
			"children":	null
		},
		{
			"style":	null,
			"props":	{
				"id":	"Go",
				"visible":	{
					"value":	null,
					"has_exp":	true
				},
				"enabled":	{
					"value":	null,
					"has_exp":	true
				},
				"format":	"\u0026Select",
				"attribute":	"U",
				"common_line_id":	"line375"
			},
			"coordinates":	{
				"x":	438,
				"y":	375,
				"width":	132,
				"height":	29
			},
			"hint":	null,
			"controlType":	"B",
			"children":	null
		}
	]
}