{
	"style":	null,
	"props":	{
		"id":	"CompanyMaster",
		"window_type":	1,
		"component_path":	"WCProgs/CompanyMaster/",
		"component_uniquename":	"CompanyMaster_CompanyMaster"
	},
	"coordinates":	{
		"x":	0,
		"y":	0,
		"width":	732,
		"height":	449
	},
	"hint":	null,
	"controlType":	null,
	"children":	[
		{
			"style":	null,
			"props":	{
				"id":	"vSearchText",
				"mgformat":	"mgFormat",
				"attribute":	"U",
				"common_line_id":	"line4"
			},
			"coordinates":	{
				"x":	12,
				"y":	8,
				"width":	189,
				"height":	23
			},
			"hint":	{
				"text":	{
					"value":	"Search Comp. Name,Short Name,Created by.",
					"has_exp":	false
				},
				"hint_color":	null
			},
			"controlType":	"T",
			"children":	null
		},
		{
			"style":	null,
			"props":	{
				"id":	"Search",
				"tooltip":	{
					"value":	null,
					"has_exp":	true
				},
				"format":	"\u0026Search",
				"attribute":	"U",
				"common_line_id":	"line4"
			},
			"coordinates":	{
				"x":	208,
				"y":	4,
				"width":	90,
				"height":	30
			},
			"hint":	null,
			"controlType":	"B",
			"children":	null
		},
		{
			"style":	null,
			"props":	{
				"id":	"Reset",
				"tooltip":	{
					"value":	null,
					"has_exp":	true
				},
				"format":	"\u0026Reset",
				"attribute":	"U",
				"common_line_id":	"line4"
			},
			"coordinates":	{
				"x":	304,
				"y":	4,
				"width":	90,
				"height":	30
			},
			"hint":	null,
			"controlType":	"B",
			"children":	null
		},
		{
			"style":	null,
			"props":	{
				"id":	"Detail",
				"common_line_id":	"line40"
			},
			"coordinates":	{
				"x":	0,
				"y":	40,
				"width":	724,
				"height":	404
			},
			"hint":	null,
			"controlType":	"F",
			"children":	null
		}
	]
}