{
	"style":	null,
	"props":	{
		"id":	"Detail",
		"component_path":	"WCSelection/CustomerSupplierSelection/Detail/",
		"component_uniquename":	"CustomerSupplierSelection_Detail_Detail"
	},
	"coordinates":	{
		"x":	0,
		"y":	0,
		"width":	567,
		"height":	454
	},
	"hint":	null,
	"controlType":	null,
	"children":	[
		{
			"style":	{
				"line_divider":	true
			},
			"props":	{
				"id":	"Table1048578",
				"table_row_height":	26,
				"table_title_height":	29,
				"no_modifiable_descendants":	true,
				"common_line_id":	"line0"
			},
			"coordinates":	{
				"x":	0,
				"y":	0,
				"width":	567,
				"height":	416
			},
			"hint":	null,
			"controlType":	"A",
			"children":	[
				{
					"style":	null,
					"props":	{
						"id":	"Column1048579",
						"column_title":	"Name",
						"sortable":	false,
						"is_table_child":	true,
						"web_style":	2
					},
					"coordinates":	{
						"width":	302
					},
					"hint":	null,
					"controlType":	"K",
					"children":	[
						{
							"style":	null,
							"props":	{
								"id":	"TableRow",
								"modifiable":	false,
								"mgformat":	"mgFormat",
								"attribute":	"U",
								"is_table_child":	true,
								"web_style":	2,
								"common_line_id":	"line33"
							},
							"coordinates":	{
								"x":	5,
								"y":	33,
								"width":	290,
								"height":	19
							},
							"hint":	null,
							"controlType":	"T",
							"children":	null
						}
					]
				},
				{
					"style":	null,
					"props":	{
						"id":	"Column1048580",
						"column_title":	"Contact No.",
						"sortable":	true,
						"is_table_child":	true,
						"web_style":	2
					},
					"coordinates":	{
						"width":	102
					},
					"hint":	null,
					"controlType":	"K",
					"children":	[
						{
							"style":	null,
							"props":	{
								"id":	"MobileNo",
								"modifiable":	false,
								"mgformat":	"mgFormat",
								"attribute":	"U",
								"is_table_child":	true,
								"web_style":	2,
								"common_line_id":	"line33"
							},
							"coordinates":	{
								"x":	305,
								"y":	33,
								"width":	98,
								"height":	19
							},
							"hint":	null,
							"controlType":	"T",
							"children":	null
						}
					]
				},
				{
					"style":	null,
					"props":	{
						"id":	"Column1048581",
						"column_title":	"GST No.",
						"sortable":	true,
						"is_table_child":	true,
						"web_style":	2
					},
					"coordinates":	{
						"width":	113
					},
					"hint":	null,
					"controlType":	"K",
					"children":	[
						{
							"style":	null,
							"props":	{
								"id":	"GSTno",
								"modifiable":	false,
								"mgformat":	"mgFormat",
								"attribute":	"U",
								"is_table_child":	true,
								"web_style":	2,
								"common_line_id":	"line33"
							},
							"coordinates":	{
								"x":	407,
								"y":	33,
								"width":	108,
								"height":	19
							},
							"hint":	null,
							"controlType":	"T",
							"children":	null
						}
					]
				}
			]
		},
		{
			"style":	null,
			"props":	{
				"id":	"Select",
				"tooltip":	{
					"value":	null,
					"has_exp":	true
				},
				"format":	"\u0026Select",
				"attribute":	"U",
				"common_line_id":	"line420"
			},
			"coordinates":	{
				"x":	0,
				"y":	423,
				"width":	90,
				"height":	30
			},
			"hint":	null,
			"controlType":	"B",
			"children":	null
		},
		{
			"style":	null,
			"props":	{
				"id":	"New",
				"format":	"\u0026New",
				"attribute":	"U",
				"common_line_id":	"line420"
			},
			"coordinates":	{
				"x":	367,
				"y":	420,
				"width":	90,
				"height":	30
			},
			"hint":	null,
			"controlType":	"B",
			"children":	null
		},
		{
			"style":	null,
			"props":	{
				"id":	"Cancel",
				"format":	"\u0026Cancel",
				"attribute":	"U",
				"common_line_id":	"line420"
			},
			"coordinates":	{
				"x":	472,
				"y":	420,
				"width":	90,
				"height":	30
			},
			"hint":	null,
			"controlType":	"B",
			"children":	null
		}
	]
}