{
   "protocol": "http",
   "server": "localhost",
   "requester": "MagicScripts47/MGrqispi.dll",
   "appname": "MGST",
   "LogClientSequenceForActivityMonitor": "N",
   "InternalLogLevel": "",
   "InternalLogSync": "Message",
   "DisplayGenericError": "N",
   "FirstHTTPRequestTimeout": "5"
}
