{
	"style":	null,
	"props":	{
		"id":	"SalesList",
		"window_type":	1,
		"component_path":	"WCTran/SalesList/",
		"component_uniquename":	"SalesList_SalesList"
	},
	"coordinates":	{
		"x":	0,
		"y":	0,
		"width":	592,
		"height":	413
	},
	"hint":	null,
	"controlType":	null,
	"children":	[
		{
			"style":	null,
			"props":	{
				"id":	"vSearchText",
				"mgformat":	"mgFormat",
				"attribute":	"U",
				"common_line_id":	"line0"
			},
			"coordinates":	{
				"x":	8,
				"y":	4,
				"width":	189,
				"height":	23
			},
			"hint":	{
				"text":	{
					"value":	"Sales code,Cust. Name,Ref. No.,Created By.",
					"has_exp":	false
				},
				"hint_color":	null
			},
			"controlType":	"T",
			"children":	null
		},
		{
			"style":	null,
			"props":	{
				"id":	"vFromDate",
				"mgformat":	"mgFormat",
				"attribute":	"D",
				"common_line_id":	"line0"
			},
			"coordinates":	{
				"x":	208,
				"y":	4,
				"width":	76,
				"height":	21
			},
			"hint":	null,
			"controlType":	"T",
			"children":	null
		},
		{
			"style":	null,
			"props":	{
				"id":	"vToDate",
				"mgformat":	"mgFormat",
				"attribute":	"D",
				"common_line_id":	"line0"
			},
			"coordinates":	{
				"x":	300,
				"y":	4,
				"width":	80,
				"height":	21
			},
			"hint":	null,
			"controlType":	"T",
			"children":	null
		},
		{
			"style":	null,
			"props":	{
				"id":	"Search",
				"tooltip":	{
					"value":	null,
					"has_exp":	true
				},
				"format":	"\u0026Search",
				"attribute":	"U",
				"common_line_id":	"line0"
			},
			"coordinates":	{
				"x":	388,
				"y":	0,
				"width":	56,
				"height":	24
			},
			"hint":	null,
			"controlType":	"B",
			"children":	null
		},
		{
			"style":	null,
			"props":	{
				"id":	"Reset",
				"tooltip":	{
					"value":	null,
					"has_exp":	true
				},
				"format":	"\u0026Reset",
				"attribute":	"U",
				"common_line_id":	"line0"
			},
			"coordinates":	{
				"x":	452,
				"y":	0,
				"width":	56,
				"height":	24
			},
			"hint":	null,
			"controlType":	"B",
			"children":	null
		},
		{
			"style":	null,
			"props":	{
				"id":	"Detail",
				"common_line_id":	"line32"
			},
			"coordinates":	{
				"x":	4,
				"y":	32,
				"width":	580,
				"height":	372
			},
			"hint":	null,
			"controlType":	"F",
			"children":	null
		}
	]
}