{
	"style":	null,
	"props":	{
		"id":	"Detail",
		"component_path":	"WCProgs/CompanyMaster/Detail/",
		"component_uniquename":	"CompanyMaster_Detail_Detail"
	},
	"coordinates":	{
		"x":	0,
		"y":	0,
		"width":	833,
		"height":	378
	},
	"hint":	null,
	"controlType":	null,
	"children":	[
		{
			"style":	null,
			"props":	{
				"id":	"New",
				"visible":	{
					"value":	null,
					"has_exp":	true
				},
				"format":	"\u0026New",
				"attribute":	"U",
				"common_line_id":	"line0"
			},
			"coordinates":	{
				"x":	0,
				"y":	0,
				"width":	75,
				"height":	29
			},
			"hint":	null,
			"controlType":	"B",
			"children":	null
		},
		{
			"style":	null,
			"props":	{
				"id":	"Help",
				"format":	"\u0026Help",
				"attribute":	"U",
				"common_line_id":	"line0"
			},
			"coordinates":	{
				"x":	80,
				"y":	0,
				"width":	75,
				"height":	29
			},
			"hint":	null,
			"controlType":	"B",
			"children":	null
		},
		{
			"style":	{
				"line_divider":	true
			},
			"props":	{
				"id":	"Table1048580",
				"table_row_height":	66,
				"table_title_height":	26,
				"common_line_id":	"line32"
			},
			"coordinates":	{
				"x":	0,
				"y":	32,
				"width":	828,
				"height":	289
			},
			"hint":	null,
			"controlType":	"A",
			"children":	[
				{
					"style":	null,
					"props":	{
						"id":	"Column1",
						"column_title":	"Name",
						"sortable":	true,
						"is_table_child":	true,
						"web_style":	2
					},
					"coordinates":	{
						"width":	268
					},
					"hint":	null,
					"controlType":	"K",
					"children":	[
						{
							"style":	null,
							"props":	{
								"id":	"CompFullName",
								"modifiable":	false,
								"mgformat":	"mgFormat",
								"attribute":	"U",
								"is_table_child":	true,
								"web_style":	2,
								"common_line_id":	"line63"
							},
							"coordinates":	{
								"x":	9,
								"y":	63,
								"width":	253,
								"height":	23
							},
							"hint":	null,
							"controlType":	"T",
							"children":	null
						}
					]
				},
				{
					"style":	null,
					"props":	{
						"id":	"Column2",
						"column_title":	"Short Name",
						"sortable":	true,
						"is_table_child":	true,
						"web_style":	2
					},
					"coordinates":	{
						"width":	119
					},
					"hint":	null,
					"controlType":	"K",
					"children":	[
						{
							"style":	null,
							"props":	{
								"id":	"ShortName",
								"modifiable":	false,
								"mgformat":	"mgFormat",
								"attribute":	"U",
								"is_table_child":	true,
								"web_style":	2,
								"common_line_id":	"line63"
							},
							"coordinates":	{
								"x":	273,
								"y":	63,
								"width":	105,
								"height":	23
							},
							"hint":	null,
							"controlType":	"T",
							"children":	null
						}
					]
				},
				{
					"style":	null,
					"props":	{
						"id":	"Column3",
						"column_title":	"Active",
						"sortable":	false,
						"is_table_child":	true,
						"web_style":	2
					},
					"coordinates":	{
						"width":	62
					},
					"hint":	null,
					"controlType":	"K",
					"children":	[
						{
							"style":	null,
							"props":	{
								"id":	"Active",
								"visible":	{
									"value":	null,
									"has_exp":	true
								},
								"text":	"",
								"attribute":	"B",
								"is_table_child":	true,
								"web_style":	2,
								"common_line_id":	"line63"
							},
							"coordinates":	{
								"x":	409,
								"y":	63,
								"width":	20,
								"height":	23
							},
							"hint":	null,
							"controlType":	"C",
							"children":	null
						}
					]
				},
				{
					"style":	null,
					"props":	{
						"id":	"Column4",
						"column_title":	"Created By",
						"sortable":	true,
						"is_table_child":	true,
						"web_style":	2
					},
					"coordinates":	{
						"width":	170
					},
					"hint":	null,
					"controlType":	"K",
					"children":	[
						{
							"style":	null,
							"props":	{
								"id":	"FullName",
								"visible":	{
									"value":	null,
									"has_exp":	true
								},
								"modifiable":	false,
								"mgformat":	"mgFormat",
								"attribute":	"U",
								"is_table_child":	true,
								"web_style":	2,
								"common_line_id":	"line63"
							},
							"coordinates":	{
								"x":	454,
								"y":	63,
								"width":	156,
								"height":	23
							},
							"hint":	null,
							"controlType":	"T",
							"children":	null
						}
					]
				},
				{
					"style":	null,
					"props":	{
						"id":	"Column5",
						"column_title":	"Created Date",
						"sortable":	true,
						"is_table_child":	true,
						"web_style":	2
					},
					"coordinates":	{
						"width":	102
					},
					"hint":	null,
					"controlType":	"K",
					"children":	[
						{
							"style":	null,
							"props":	{
								"id":	"CreatedDate",
								"visible":	{
									"value":	null,
									"has_exp":	true
								},
								"modifiable":	false,
								"formatter":	"magicDate",
								"mgformat":	"mgFormat",
								"attribute":	"D",
								"is_table_child":	true,
								"web_style":	2,
								"common_line_id":	"line63"
							},
							"coordinates":	{
								"x":	628,
								"y":	63,
								"width":	74,
								"height":	23
							},
							"hint":	null,
							"controlType":	"T",
							"children":	null
						}
					]
				},
				{
					"style":	null,
					"props":	{
						"id":	"Column6",
						"is_table_child":	true,
						"web_style":	2
					},
					"coordinates":	{
						"width":	96
					},
					"hint":	null,
					"controlType":	"K",
					"children":	[
						{
							"style":	null,
							"props":	{
								"id":	"Edit",
								"format":	"\u0026Edit",
								"attribute":	"U",
								"is_table_child":	true,
								"web_style":	2,
								"row_editing_type":	0,
								"common_line_id":	"line62"
							},
							"coordinates":	{
								"x":	725,
								"y":	62,
								"width":	45,
								"height":	29
							},
							"hint":	null,
							"controlType":	"B",
							"children":	null
						},
						{
							"style":	null,
							"props":	{
								"id":	"View_Detail",
								"tooltip":	{
									"value":	null,
									"has_exp":	true
								},
								"format":	"\u0026View",
								"attribute":	"U",
								"is_table_child":	true,
								"web_style":	2,
								"row_editing_type":	0,
								"common_line_id":	"line62"
							},
							"coordinates":	{
								"x":	771,
								"y":	63,
								"width":	45,
								"height":	29
							},
							"hint":	null,
							"controlType":	"B",
							"children":	null
						}
					]
				}
			]
		},
		{
			"style":	null,
			"props":	{
				"id":	"Label1048578",
				"text":	" F5",
				"common_line_id":	"line340"
			},
			"coordinates":	{
				"x":	11,
				"y":	340,
				"width":	19,
				"height":	19
			},
			"hint":	null,
			"controlType":	"L",
			"children":	null
		},
		{
			"style":	null,
			"props":	{
				"id":	"gNote",
				"modifiable":	false,
				"mgformat":	"mgFormat",
				"attribute":	"U",
				"common_line_id":	"line340"
			},
			"coordinates":	{
				"x":	30,
				"y":	340,
				"width":	340,
				"height":	19
			},
			"hint":	null,
			"controlType":	"T",
			"children":	null
		}
	]
}