{
	"style":	null,
	"props":	{
		"id":	"Details",
		"component_path":	"WCProgs/StatesList/Details/",
		"component_uniquename":	"StatesList_Details_Details"
	},
	"coordinates":	{
		"x":	0,
		"y":	0,
		"width":	907,
		"height":	378
	},
	"hint":	null,
	"controlType":	null,
	"children":	[
		{
			"style":	{
				"line_divider":	true
			},
			"props":	{
				"id":	"Table2097154",
				"table_row_height":	23,
				"table_title_height":	25,
				"common_line_id":	"line0"
			},
			"coordinates":	{
				"x":	0,
				"y":	0,
				"width":	907,
				"height":	321
			},
			"hint":	null,
			"controlType":	"A",
			"children":	[
				{
					"style":	null,
					"props":	{
						"id":	"Column2097155",
						"column_title":	" State Name",
						"sortable":	true,
						"is_table_child":	true,
						"web_style":	2
					},
					"coordinates":	{
						"width":	153
					},
					"hint":	null,
					"controlType":	"K",
					"children":	[
						{
							"style":	null,
							"props":	{
								"id":	"StateName",
								"visible":	{
									"value":	null,
									"has_exp":	true
								},
								"modifiable":	false,
								"mgformat":	"mgFormat",
								"attribute":	"U",
								"is_table_child":	true,
								"web_style":	2,
								"common_line_id":	"line29"
							},
							"coordinates":	{
								"x":	3,
								"y":	29,
								"width":	146,
								"height":	19
							},
							"hint":	null,
							"controlType":	"T",
							"children":	null
						}
					]
				},
				{
					"style":	null,
					"props":	{
						"id":	"Column2097156",
						"column_title":	"State Code",
						"sortable":	true,
						"is_table_child":	true,
						"web_style":	2
					},
					"coordinates":	{
						"width":	76
					},
					"hint":	null,
					"controlType":	"K",
					"children":	[
						{
							"style":	null,
							"props":	{
								"id":	"StateCode",
								"visible":	{
									"value":	null,
									"has_exp":	true
								},
								"modifiable":	false,
								"mgformat":	"mgFormat",
								"attribute":	"N",
								"is_table_child":	true,
								"web_style":	2,
								"common_line_id":	"line29"
							},
							"coordinates":	{
								"x":	156,
								"y":	29,
								"width":	68,
								"height":	19
							},
							"hint":	null,
							"controlType":	"T",
							"children":	null
						}
					]
				},
				{
					"style":	null,
					"props":	{
						"id":	"Column2097157",
						"column_title":	"Country Name",
						"sortable":	true,
						"is_table_child":	true,
						"web_style":	2
					},
					"coordinates":	{
						"width":	199
					},
					"hint":	null,
					"controlType":	"K",
					"children":	[
						{
							"style":	null,
							"props":	{
								"id":	"CName",
								"visible":	{
									"value":	null,
									"has_exp":	true
								},
								"modifiable":	false,
								"mgformat":	"mgFormat",
								"attribute":	"U",
								"is_table_child":	true,
								"web_style":	2,
								"common_line_id":	"line29"
							},
							"coordinates":	{
								"x":	231,
								"y":	29,
								"width":	194,
								"height":	19
							},
							"hint":	null,
							"controlType":	"T",
							"children":	null
						}
					]
				},
				{
					"style":	null,
					"props":	{
						"id":	"Column2097158",
						"column_title":	"Short Name",
						"sortable":	true,
						"is_table_child":	true,
						"web_style":	2
					},
					"coordinates":	{
						"width":	76
					},
					"hint":	null,
					"controlType":	"K",
					"children":	[
						{
							"style":	null,
							"props":	{
								"id":	"ShortName",
								"visible":	{
									"value":	null,
									"has_exp":	true
								},
								"modifiable":	false,
								"mgformat":	"mgFormat",
								"attribute":	"U",
								"is_table_child":	true,
								"web_style":	2,
								"common_line_id":	"line29"
							},
							"coordinates":	{
								"x":	430,
								"y":	29,
								"width":	71,
								"height":	19
							},
							"hint":	null,
							"controlType":	"T",
							"children":	null
						}
					]
				},
				{
					"style":	null,
					"props":	{
						"id":	"Column2097159",
						"column_title":	"Active",
						"sortable":	true,
						"is_table_child":	true,
						"web_style":	2
					},
					"coordinates":	{
						"width":	42
					},
					"hint":	null,
					"controlType":	"K",
					"children":	[
						{
							"style":	null,
							"props":	{
								"id":	"Active",
								"visible":	{
									"value":	null,
									"has_exp":	true
								},
								"text":	"",
								"attribute":	"B",
								"is_table_child":	true,
								"web_style":	2,
								"common_line_id":	"line29"
							},
							"coordinates":	{
								"x":	510,
								"y":	29,
								"width":	26,
								"height":	19
							},
							"hint":	null,
							"controlType":	"C",
							"children":	null
						}
					]
				}
			]
		},
		{
			"style":	null,
			"props":	{
				"id":	"gNote",
				"modifiable":	false,
				"mgformat":	"mgFormat",
				"attribute":	"U",
				"common_line_id":	"line335"
			},
			"coordinates":	{
				"x":	34,
				"y":	340,
				"width":	340,
				"height":	19
			},
			"hint":	null,
			"controlType":	"T",
			"children":	null
		},
		{
			"style":	null,
			"props":	{
				"id":	"btnAdd",
				"button_style":	1,
				"format":	"\u0026New",
				"attribute":	"U",
				"common_line_id":	"line335"
			},
			"coordinates":	{
				"x":	405,
				"y":	335,
				"width":	90,
				"height":	30
			},
			"hint":	null,
			"controlType":	"B",
			"children":	null
		},
		{
			"style":	null,
			"props":	{
				"id":	"btnEdit",
				"button_style":	1,
				"format":	"\u0026Edit",
				"attribute":	"U",
				"common_line_id":	"line335"
			},
			"coordinates":	{
				"x":	503,
				"y":	335,
				"width":	90,
				"height":	30
			},
			"hint":	null,
			"controlType":	"B",
			"children":	null
		},
		{
			"style":	null,
			"props":	{
				"id":	"btnView",
				"button_style":	1,
				"tooltip":	{
					"value":	null,
					"has_exp":	true
				},
				"format":	"\u0026View",
				"attribute":	"U",
				"common_line_id":	"line335"
			},
			"coordinates":	{
				"x":	601,
				"y":	335,
				"width":	90,
				"height":	30
			},
			"hint":	null,
			"controlType":	"B",
			"children":	null
		},
		{
			"style":	null,
			"props":	{
				"id":	"btnDelete",
				"enabled":	{
					"value":	null,
					"has_exp":	true
				},
				"button_style":	1,
				"format":	"\u0026Delete",
				"attribute":	"U",
				"common_line_id":	"line335"
			},
			"coordinates":	{
				"x":	698,
				"y":	335,
				"width":	90,
				"height":	30
			},
			"hint":	null,
			"controlType":	"B",
			"children":	null
		},
		{
			"style":	null,
			"props":	{
				"id":	"btnClose",
				"button_style":	1,
				"format":	"\u0026Close",
				"attribute":	"U",
				"common_line_id":	"line335"
			},
			"coordinates":	{
				"x":	796,
				"y":	335,
				"width":	90,
				"height":	30
			},
			"hint":	null,
			"controlType":	"B",
			"children":	null
		}
	]
}